[
    {
        "groupId": 45,
        "name": "Travel",
        "clientId": 72,
        "createdBy": "admin",
        "createdDate": 1605782254000,
        "modifiedBy": "admin",
        "modifiedDate": 1617094109000,
        "client": {
            "clientId": 72,
            "name": "American Express",
            "createdBy": null,
            "createdDate": null,
            "modifiedBy": null,
            "modifiedDate": null,
            "domains": null,
            "groups": null,
            "missions": null
        },
        "missions": null
    },
    {
        "groupId": 50,
        "name": "Ad Hoc",
        "clientId": 72,
        "createdBy": "admin",
        "createdDate": 1606729511000,
        "modifiedBy": null,
        "modifiedDate": null,
        "client": {
            "clientId": 72,
            "name": "American Express",
            "createdBy": null,
            "createdDate": null,
            "modifiedBy": null,
            "modifiedDate": null,
            "domains": null,
            "groups": null,
            "missions": null
        },
        "missions": null
    },
    {
        "groupId": 51,
        "name": "GCS",
        "clientId": 72,
        "createdBy": "admin",
        "createdDate": 1606730448000,
        "modifiedBy": null,
        "modifiedDate": null,
        "client": {
            "clientId": 72,
            "name": "American Express",
            "createdBy": null,
            "createdDate": null,
            "modifiedBy": null,
            "modifiedDate": null,
            "domains": null,
            "groups": null,
            "missions": null
        },
        "missions": null
    },
    {
        "groupId": 91,
        "name": "American Express CMS",
        "clientId": 72,
        "createdBy": "admin",
        "createdDate": 1611141016000,
        "modifiedBy": null,
        "modifiedDate": null,
        "client": {
            "clientId": 72,
            "name": "American Express",
            "createdBy": null,
            "createdDate": null,
            "modifiedBy": null,
            "modifiedDate": null,
            "domains": null,
            "groups": null,
            "missions": null
        },
        "missions": null
    },
    {
        "groupId": 44,
        "name": "Kickoff Keywords 8/31",
        "clientId": 71,
        "createdBy": "admin",
        "createdDate": 1605781689000,
        "modifiedBy": "admin",
        "modifiedDate": 1607923198000,
        "client": {
            "clientId": 71,
            "name": "American Red Cross",
            "createdBy": null,
            "createdDate": null,
            "modifiedBy": null,
            "modifiedDate": null,
            "domains": null,
            "groups": null,
            "missions": null
        },
        "missions": null
    },
    {
        "groupId": 46,
        "name": "B2B Terms 120117",
        "clientId": 71,
        "createdBy": "admin",
        "createdDate": 1605786577000,
        "modifiedBy": null,
        "modifiedDate": null,
        "client": {
            "clientId": 71,
            "name": "American Red Cross",
            "createdBy": null,
            "createdDate": null,
            "modifiedBy": null,
            "modifiedDate": null,
            "domains": null,
            "groups": null,
            "missions": null
        },
        "missions": null
    },
    {
        "groupId": 47,
        "name": "Learning Center",
        "clientId": 71,
        "createdBy": "admin",
        "createdDate": 1605786683000,
        "modifiedBy": null,
        "modifiedDate": null,
        "client": {
            "clientId": 71,
            "name": "American Red Cross",
            "createdBy": null,
            "createdDate": null,
            "modifiedBy": null,
            "modifiedDate": null,
            "domains": null,
            "groups": null,
            "missions": null
        },
        "missions": null
    },
    {
        "groupId": 48,
        "name": "PIRE Test Terms",
        "clientId": 71,
        "createdBy": "admin",
        "createdDate": 1605786852000,
        "modifiedBy": null,
        "modifiedDate": null,
        "client": {
            "clientId": 71,
            "name": "American Red Cross",
            "createdBy": null,
            "createdDate": null,
            "modifiedBy": null,
            "modifiedDate": null,
            "domains": null,
            "groups": null,
            "missions": null
        },
        "missions": null
    },
    {
        "groupId": 49,
        "name": "Water Safety Pages",
        "clientId": 71,
        "createdBy": "admin",
        "createdDate": 1605787031000,
        "modifiedBy": null,
        "modifiedDate": null,
        "client": {
            "clientId": 71,
            "name": "American Red Cross",
            "createdBy": null,
            "createdDate": null,
            "modifiedBy": null,
            "modifiedDate": null,
            "domains": null,
            "groups": null,
            "missions": null
        },
        "missions": null
    },
    {
        "groupId": 93,
        "name": "Training KW Universe Update - Mar'21",
        "clientId": 71,
        "createdBy": "admin",
        "createdDate": 1614819622000,
        "modifiedBy": null,
        "modifiedDate": null,
        "client": {
            "clientId": 71,
            "name": "American Red Cross",
            "createdBy": null,
            "createdDate": null,
            "modifiedBy": null,
            "modifiedDate": null,
            "domains": null,
            "groups": null,
            "missions": null
        },
        "missions": null
    },
    {
        "groupId": 108,
        "name": "TEST",
        "clientId": 71,
        "createdBy": "admin",
        "createdDate": 1643387937000,
        "modifiedBy": null,
        "modifiedDate": null,
        "client": {
            "clientId": 71,
            "name": "American Red Cross",
            "createdBy": null,
            "createdDate": null,
            "modifiedBy": null,
            "modifiedDate": null,
            "domains": null,
            "groups": null,
            "missions": null
        },
        "missions": null
    },
    {
        "groupId": 105,
        "name": "Pitch",
        "clientId": 94,
        "createdBy": "admin",
        "createdDate": 1636403014000,
        "modifiedBy": null,
        "modifiedDate": null,
        "client": {
            "clientId": 94,
            "name": "Blue Nile",
            "createdBy": null,
            "createdDate": null,
            "modifiedBy": null,
            "modifiedDate": null,
            "domains": null,
            "groups": null,
            "missions": null
        },
        "missions": null
    },
    {
        "groupId": 40,
        "name": "Firestone IP Opp",
        "clientId": 1,
        "createdBy": "admin",
        "createdDate": 1604890107000,
        "modifiedBy": null,
        "modifiedDate": null,
        "client": {
            "clientId": 1,
            "name": "BridgeStone",
            "createdBy": null,
            "createdDate": null,
            "modifiedBy": null,
            "modifiedDate": null,
            "domains": null,
            "groups": null,
            "missions": null
        },
        "missions": null
    },
    {
        "groupId": 94,
        "name": "BATO",
        "clientId": 1,
        "createdBy": "admin",
        "createdDate": 1614928654000,
        "modifiedBy": null,
        "modifiedDate": null,
        "client": {
            "clientId": 1,
            "name": "BridgeStone",
            "createdBy": null,
            "createdDate": null,
            "modifiedBy": null,
            "modifiedDate": null,
            "domains": null,
            "groups": null,
            "missions": null
        },
        "missions": null
    },
    {
        "groupId": 32,
        "name": "Hilton",
        "clientId": 65,
        "createdBy": "admin",
        "createdDate": 1600306236000,
        "modifiedBy": null,
        "modifiedDate": null,
        "client": {
            "clientId": 65,
            "name": "Hilton",
            "createdBy": null,
            "createdDate": null,
            "modifiedBy": null,
            "modifiedDate": null,
            "domains": null,
            "groups": null,
            "missions": null
        },
        "missions": null
    },
    {
        "groupId": 43,
        "name": "Keyword Universe",
        "clientId": 65,
        "createdBy": "admin",
        "createdDate": 1605780252000,
        "modifiedBy": null,
        "modifiedDate": null,
        "client": {
            "clientId": 65,
            "name": "Hilton",
            "createdBy": null,
            "createdDate": null,
            "modifiedBy": null,
            "modifiedDate": null,
            "domains": null,
            "groups": null,
            "missions": null
        },
        "missions": null
    },
    {
        "groupId": 52,
        "name": "Ad-Hoc",
        "clientId": 65,
        "createdBy": "admin",
        "createdDate": 1606732421000,
        "modifiedBy": null,
        "modifiedDate": null,
        "client": {
            "clientId": 65,
            "name": "Hilton",
            "createdBy": null,
            "createdDate": null,
            "modifiedBy": null,
            "modifiedDate": null,
            "domains": null,
            "groups": null,
            "missions": null
        },
        "missions": null
    },
    {
        "groupId": 53,
        "name": "Brand KUs",
        "clientId": 65,
        "createdBy": "admin",
        "createdDate": 1606732929000,
        "modifiedBy": null,
        "modifiedDate": null,
        "client": {
            "clientId": 65,
            "name": "Hilton",
            "createdBy": null,
            "createdDate": null,
            "modifiedBy": null,
            "modifiedDate": null,
            "domains": null,
            "groups": null,
            "missions": null
        },
        "missions": null
    },
    {
        "groupId": 54,
        "name": "Local Audit",
        "clientId": 65,
        "createdBy": "admin",
        "createdDate": 1606732982000,
        "modifiedBy": null,
        "modifiedDate": null,
        "client": {
            "clientId": 65,
            "name": "Hilton",
            "createdBy": null,
            "createdDate": null,
            "modifiedBy": null,
            "modifiedDate": null,
            "domains": null,
            "groups": null,
            "missions": null
        },
        "missions": null
    },
    {
        "groupId": 55,
        "name": "Monthly Reporting",
        "clientId": 65,
        "createdBy": "admin",
        "createdDate": 1606732991000,
        "modifiedBy": null,
        "modifiedDate": null,
        "client": {
            "clientId": 65,
            "name": "Hilton",
            "createdBy": null,
            "createdDate": null,
            "modifiedBy": null,
            "modifiedDate": null,
            "domains": null,
            "groups": null,
            "missions": null
        },
        "missions": null
    },
    {
        "groupId": 99,
        "name": "Copy Block Visibility",
        "clientId": 65,
        "createdBy": "admin",
        "createdDate": 1620422708000,
        "modifiedBy": null,
        "modifiedDate": null,
        "client": {
            "clientId": 65,
            "name": "Hilton",
            "createdBy": null,
            "createdDate": null,
            "modifiedBy": null,
            "modifiedDate": null,
            "domains": null,
            "groups": null,
            "missions": null
        },
        "missions": null
    },
    {
        "groupId": 111,
        "name": "SOV",
        "clientId": 65,
        "createdBy": "admin",
        "createdDate": 1647539848000,
        "modifiedBy": null,
        "modifiedDate": null,
        "client": {
            "clientId": 65,
            "name": "Hilton",
            "createdBy": null,
            "createdDate": null,
            "modifiedBy": null,
            "modifiedDate": null,
            "domains": null,
            "groups": null,
            "missions": null
        },
        "missions": null
    },
    {
        "groupId": 56,
        "name": "Pharmacy",
        "clientId": 73,
        "createdBy": "admin",
        "createdDate": 1606733722000,
        "modifiedBy": null,
        "modifiedDate": null,
        "client": {
            "clientId": 73,
            "name": "Humana",
            "createdBy": null,
            "createdDate": null,
            "modifiedBy": null,
            "modifiedDate": null,
            "domains": null,
            "groups": null,
            "missions": null
        },
        "missions": null
    },
    {
        "groupId": 39,
        "name": "iCrossing",
        "clientId": 68,
        "createdBy": "admin",
        "createdDate": 1604890086000,
        "modifiedBy": null,
        "modifiedDate": null,
        "client": {
            "clientId": 68,
            "name": "iCrossing",
            "createdBy": null,
            "createdDate": null,
            "modifiedBy": null,
            "modifiedDate": null,
            "domains": null,
            "groups": null,
            "missions": null
        },
        "missions": null
    },
    {
        "groupId": 97,
        "name": "Posicionamiento",
        "clientId": 86,
        "createdBy": "admin",
        "createdDate": 1619011089000,
        "modifiedBy": null,
        "modifiedDate": null,
        "client": {
            "clientId": 86,
            "name": "iCrossing MX",
            "createdBy": null,
            "createdDate": null,
            "modifiedBy": null,
            "modifiedDate": null,
            "domains": null,
            "groups": null,
            "missions": null
        },
        "missions": null
    },
    {
        "groupId": 59,
        "name": "CH",
        "clientId": 76,
        "createdBy": "admin",
        "createdDate": 1606907197000,
        "modifiedBy": null,
        "modifiedDate": null,
        "client": {
            "clientId": 76,
            "name": "L'Oreal KW Group",
            "createdBy": null,
            "createdDate": null,
            "modifiedBy": null,
            "modifiedDate": null,
            "domains": null,
            "groups": null,
            "missions": null
        },
        "missions": null
    },
    {
        "groupId": 60,
        "name": "Garnier",
        "clientId": 76,
        "createdBy": "admin",
        "createdDate": 1606907535000,
        "modifiedBy": null,
        "modifiedDate": null,
        "client": {
            "clientId": 76,
            "name": "L'Oreal KW Group",
            "createdBy": null,
            "createdDate": null,
            "modifiedBy": null,
            "modifiedDate": null,
            "domains": null,
            "groups": null,
            "missions": null
        },
        "missions": null
    },
    {
        "groupId": 61,
        "name": "UK",
        "clientId": 76,
        "createdBy": "admin",
        "createdDate": 1606908384000,
        "modifiedBy": null,
        "modifiedDate": null,
        "client": {
            "clientId": 76,
            "name": "L'Oreal KW Group",
            "createdBy": null,
            "createdDate": null,
            "modifiedBy": null,
            "modifiedDate": null,
            "domains": null,
            "groups": null,
            "missions": null
        },
        "missions": null
    },
    {
        "groupId": 62,
        "name": "Urban Decay",
        "clientId": 76,
        "createdBy": "admin",
        "createdDate": 1606908606000,
        "modifiedBy": null,
        "modifiedDate": null,
        "client": {
            "clientId": 76,
            "name": "L'Oreal KW Group",
            "createdBy": null,
            "createdDate": null,
            "modifiedBy": null,
            "modifiedDate": null,
            "domains": null,
            "groups": null,
            "missions": null
        },
        "missions": null
    },
    {
        "groupId": 63,
        "name": "US",
        "clientId": 76,
        "createdBy": "admin",
        "createdDate": 1606908969000,
        "modifiedBy": null,
        "modifiedDate": null,
        "client": {
            "clientId": 76,
            "name": "L'Oreal KW Group",
            "createdBy": null,
            "createdDate": null,
            "modifiedBy": null,
            "modifiedDate": null,
            "domains": null,
            "groups": null,
            "missions": null
        },
        "missions": null
    },
    {
        "groupId": 103,
        "name": "CeraVe",
        "clientId": 76,
        "createdBy": "admin",
        "createdDate": 1629906582000,
        "modifiedBy": null,
        "modifiedDate": null,
        "client": {
            "clientId": 76,
            "name": "L'Oreal KW Group",
            "createdBy": null,
            "createdDate": null,
            "modifiedBy": null,
            "modifiedDate": null,
            "domains": null,
            "groups": null,
            "missions": null
        },
        "missions": null
    },
    {
        "groupId": 41,
        "name": "LG US",
        "clientId": 70,
        "createdBy": "admin",
        "createdDate": 1605598460000,
        "modifiedBy": null,
        "modifiedDate": null,
        "client": {
            "clientId": 70,
            "name": "LG",
            "createdBy": null,
            "createdDate": null,
            "modifiedBy": null,
            "modifiedDate": null,
            "domains": null,
            "groups": null,
            "missions": null
        },
        "missions": null
    },
    {
        "groupId": 42,
        "name": "Ad hoc reports",
        "clientId": 70,
        "createdBy": "admin",
        "createdDate": 1605671970000,
        "modifiedBy": null,
        "modifiedDate": null,
        "client": {
            "clientId": 70,
            "name": "LG",
            "createdBy": null,
            "createdDate": null,
            "modifiedBy": null,
            "modifiedDate": null,
            "domains": null,
            "groups": null,
            "missions": null
        },
        "missions": null
    },
    {
        "groupId": 96,
        "name": "Loans & Credit Cards",
        "clientId": 85,
        "createdBy": "admin",
        "createdDate": 1616667468000,
        "modifiedBy": null,
        "modifiedDate": null,
        "client": {
            "clientId": 85,
            "name": "M & S Bank",
            "createdBy": null,
            "createdDate": null,
            "modifiedBy": null,
            "modifiedDate": null,
            "domains": null,
            "groups": null,
            "missions": null
        },
        "missions": null
    },
    {
        "groupId": 38,
        "name": "Security",
        "clientId": 7,
        "createdBy": "admin",
        "createdDate": 1604890073000,
        "modifiedBy": null,
        "modifiedDate": null,
        "client": {
            "clientId": 7,
            "name": "Microsoft",
            "createdBy": null,
            "createdDate": null,
            "modifiedBy": null,
            "modifiedDate": null,
            "domains": null,
            "groups": null,
            "missions": null
        },
        "missions": null
    },
    {
        "groupId": 102,
        "name": "RFP",
        "clientId": 88,
        "createdBy": "admin",
        "createdDate": 1621967416000,
        "modifiedBy": null,
        "modifiedDate": null,
        "client": {
            "clientId": 88,
            "name": "Nordstrom",
            "createdBy": null,
            "createdDate": null,
            "modifiedBy": null,
            "modifiedDate": null,
            "domains": null,
            "groups": null,
            "missions": null
        },
        "missions": null
    },
    {
        "groupId": 106,
        "name": "Pet Partners",
        "clientId": 96,
        "createdBy": "admin",
        "createdDate": 1642792677000,
        "modifiedBy": null,
        "modifiedDate": null,
        "client": {
            "clientId": 96,
            "name": "Pet Partners",
            "createdBy": null,
            "createdDate": null,
            "modifiedBy": null,
            "modifiedDate": null,
            "domains": null,
            "groups": null,
            "missions": null
        },
        "missions": null
    },
    {
        "groupId": 64,
        "name": "Content Gap",
        "clientId": 77,
        "createdBy": "admin",
        "createdDate": 1606909081000,
        "modifiedBy": "admin",
        "modifiedDate": 1606905703000,
        "client": {
            "clientId": 77,
            "name": "Quaker",
            "createdBy": null,
            "createdDate": null,
            "modifiedBy": null,
            "modifiedDate": null,
            "domains": null,
            "groups": null,
            "missions": null
        },
        "missions": null
    },
    {
        "groupId": 65,
        "name": "Quarterly Report",
        "clientId": 77,
        "createdBy": "admin",
        "createdDate": 1606909101000,
        "modifiedBy": "admin",
        "modifiedDate": 1608031400000,
        "client": {
            "clientId": 77,
            "name": "Quaker",
            "createdBy": null,
            "createdDate": null,
            "modifiedBy": null,
            "modifiedDate": null,
            "domains": null,
            "groups": null,
            "missions": null
        },
        "missions": null
    },
    {
        "groupId": 66,
        "name": "Recipe Audit",
        "clientId": 77,
        "createdBy": "admin",
        "createdDate": 1606909116000,
        "modifiedBy": null,
        "modifiedDate": null,
        "client": {
            "clientId": 77,
            "name": "Quaker",
            "createdBy": null,
            "createdDate": null,
            "modifiedBy": null,
            "modifiedDate": null,
            "domains": null,
            "groups": null,
            "missions": null
        },
        "missions": null
    },
    {
        "groupId": 57,
        "name": "RedCrossStore.org",
        "clientId": 74,
        "createdBy": "admin",
        "createdDate": 1606708804000,
        "modifiedBy": null,
        "modifiedDate": null,
        "client": {
            "clientId": 74,
            "name": "Red Cross Store",
            "createdBy": null,
            "createdDate": null,
            "modifiedBy": null,
            "modifiedDate": null,
            "domains": null,
            "groups": null,
            "missions": null
        },
        "missions": null
    },
    {
        "groupId": 67,
        "name": "Kiehls",
        "clientId": 78,
        "createdBy": "admin",
        "createdDate": 1606909618000,
        "modifiedBy": null,
        "modifiedDate": null,
        "client": {
            "clientId": 78,
            "name": "Sales",
            "createdBy": null,
            "createdDate": null,
            "modifiedBy": null,
            "modifiedDate": null,
            "domains": null,
            "groups": null,
            "missions": null
        },
        "missions": null
    },
    {
        "groupId": 58,
        "name": "Reporting",
        "clientId": 75,
        "createdBy": "admin",
        "createdDate": 1606814891000,
        "modifiedBy": null,
        "modifiedDate": null,
        "client": {
            "clientId": 75,
            "name": "ShareCare",
            "createdBy": null,
            "createdDate": null,
            "modifiedBy": null,
            "modifiedDate": null,
            "domains": null,
            "groups": null,
            "missions": null
        },
        "missions": null
    },
    {
        "groupId": 68,
        "name": "KWU",
        "clientId": 75,
        "createdBy": "admin",
        "createdDate": 1606910020000,
        "modifiedBy": null,
        "modifiedDate": null,
        "client": {
            "clientId": 75,
            "name": "ShareCare",
            "createdBy": null,
            "createdDate": null,
            "modifiedBy": null,
            "modifiedDate": null,
            "domains": null,
            "groups": null,
            "missions": null
        },
        "missions": null
    },
    {
        "groupId": 71,
        "name": "Categorized Keywords",
        "clientId": 79,
        "createdBy": "admin",
        "createdDate": 1606910415000,
        "modifiedBy": null,
        "modifiedDate": null,
        "client": {
            "clientId": 79,
            "name": "Swift Transportation",
            "createdBy": null,
            "createdDate": null,
            "modifiedBy": null,
            "modifiedDate": null,
            "domains": null,
            "groups": null,
            "missions": null
        },
        "missions": null
    },
    {
        "groupId": 72,
        "name": "Official KW List - All Terms",
        "clientId": 79,
        "createdBy": "admin",
        "createdDate": 1606910443000,
        "modifiedBy": null,
        "modifiedDate": null,
        "client": {
            "clientId": 79,
            "name": "Swift Transportation",
            "createdBy": null,
            "createdDate": null,
            "modifiedBy": null,
            "modifiedDate": null,
            "domains": null,
            "groups": null,
            "missions": null
        },
        "missions": null
    },
    {
        "groupId": 87,
        "name": "TFB",
        "clientId": 81,
        "createdBy": "admin",
        "createdDate": 1606970799000,
        "modifiedBy": null,
        "modifiedDate": null,
        "client": {
            "clientId": 81,
            "name": "T-Mobile",
            "createdBy": null,
            "createdDate": null,
            "modifiedBy": null,
            "modifiedDate": null,
            "domains": null,
            "groups": null,
            "missions": null
        },
        "missions": null
    },
    {
        "groupId": 88,
        "name": "T-Mobile Marketing Solutions",
        "clientId": 81,
        "createdBy": "admin",
        "createdDate": 1606970814000,
        "modifiedBy": null,
        "modifiedDate": null,
        "client": {
            "clientId": 81,
            "name": "T-Mobile",
            "createdBy": null,
            "createdDate": null,
            "modifiedBy": null,
            "modifiedDate": null,
            "domains": null,
            "groups": null,
            "missions": null
        },
        "missions": null
    },
    {
        "groupId": 89,
        "name": "T-Mobile Money",
        "clientId": 81,
        "createdBy": "admin",
        "createdDate": 1606970838000,
        "modifiedBy": null,
        "modifiedDate": null,
        "client": {
            "clientId": 81,
            "name": "T-Mobile",
            "createdBy": null,
            "createdDate": null,
            "modifiedBy": null,
            "modifiedDate": null,
            "domains": null,
            "groups": null,
            "missions": null
        },
        "missions": null
    },
    {
        "groupId": 90,
        "name": "TVision",
        "clientId": 81,
        "createdBy": "admin",
        "createdDate": 1606970856000,
        "modifiedBy": null,
        "modifiedDate": null,
        "client": {
            "clientId": 81,
            "name": "T-Mobile",
            "createdBy": null,
            "createdDate": null,
            "modifiedBy": null,
            "modifiedDate": null,
            "domains": null,
            "groups": null,
            "missions": null
        },
        "missions": null
    },
    {
        "groupId": 92,
        "name": "T Mobile Metro",
        "clientId": 81,
        "createdBy": "admin",
        "createdDate": 1613107606000,
        "modifiedBy": null,
        "modifiedDate": null,
        "client": {
            "clientId": 81,
            "name": "T-Mobile",
            "createdBy": null,
            "createdDate": null,
            "modifiedBy": null,
            "modifiedDate": null,
            "domains": null,
            "groups": null,
            "missions": null
        },
        "missions": null
    },
    {
        "groupId": 98,
        "name": "T-Mobile HINT",
        "clientId": 81,
        "createdBy": "admin",
        "createdDate": 1619211718000,
        "modifiedBy": null,
        "modifiedDate": null,
        "client": {
            "clientId": 81,
            "name": "T-Mobile",
            "createdBy": null,
            "createdDate": null,
            "modifiedBy": null,
            "modifiedDate": null,
            "domains": null,
            "groups": null,
            "missions": null
        },
        "missions": null
    },
    {
        "groupId": 104,
        "name": "T-Mobile Fiber",
        "clientId": 81,
        "createdBy": "admin",
        "createdDate": 1630084023000,
        "modifiedBy": null,
        "modifiedDate": null,
        "client": {
            "clientId": 81,
            "name": "T-Mobile",
            "createdBy": null,
            "createdDate": null,
            "modifiedBy": null,
            "modifiedDate": null,
            "domains": null,
            "groups": null,
            "missions": null
        },
        "missions": null
    },
    {
        "groupId": 109,
        "name": "Postpaid",
        "clientId": 81,
        "createdBy": "admin",
        "createdDate": 1644962084000,
        "modifiedBy": null,
        "modifiedDate": null,
        "client": {
            "clientId": 81,
            "name": "T-Mobile",
            "createdBy": null,
            "createdDate": null,
            "modifiedBy": null,
            "modifiedDate": null,
            "domains": null,
            "groups": null,
            "missions": null
        },
        "missions": null
    },
    {
        "groupId": 80,
        "name": "Energy BU",
        "clientId": 80,
        "createdBy": "admin",
        "createdDate": 1606905806000,
        "modifiedBy": null,
        "modifiedDate": null,
        "client": {
            "clientId": 80,
            "name": "TEC",
            "createdBy": null,
            "createdDate": null,
            "modifiedBy": null,
            "modifiedDate": null,
            "domains": null,
            "groups": null,
            "missions": null
        },
        "missions": null
    },
    {
        "groupId": 81,
        "name": "Product Family List",
        "clientId": 80,
        "createdBy": "admin",
        "createdDate": 1606905849000,
        "modifiedBy": null,
        "modifiedDate": null,
        "client": {
            "clientId": 80,
            "name": "TEC",
            "createdBy": null,
            "createdDate": null,
            "modifiedBy": null,
            "modifiedDate": null,
            "domains": null,
            "groups": null,
            "missions": null
        },
        "missions": null
    },
    {
        "groupId": 82,
        "name": "Sensors",
        "clientId": 80,
        "createdBy": "admin",
        "createdDate": 1606906403000,
        "modifiedBy": null,
        "modifiedDate": null,
        "client": {
            "clientId": 80,
            "name": "TEC",
            "createdBy": null,
            "createdDate": null,
            "modifiedBy": null,
            "modifiedDate": null,
            "domains": null,
            "groups": null,
            "missions": null
        },
        "missions": null
    },
    {
        "groupId": 86,
        "name": "Content  Gap",
        "clientId": 80,
        "createdBy": "admin",
        "createdDate": 1606970710000,
        "modifiedBy": null,
        "modifiedDate": null,
        "client": {
            "clientId": 80,
            "name": "TEC",
            "createdBy": null,
            "createdDate": null,
            "modifiedBy": null,
            "modifiedDate": null,
            "domains": null,
            "groups": null,
            "missions": null
        },
        "missions": null
    },
    {
        "groupId": 107,
        "name": "LADD",
        "clientId": 80,
        "createdBy": "admin",
        "createdDate": 1643151563000,
        "modifiedBy": null,
        "modifiedDate": null,
        "client": {
            "clientId": 80,
            "name": "TEC",
            "createdBy": null,
            "createdDate": null,
            "modifiedBy": null,
            "modifiedDate": null,
            "domains": null,
            "groups": null,
            "missions": null
        },
        "missions": null
    },
    {
        "groupId": 110,
        "name": "Global",
        "clientId": 80,
        "createdBy": "admin",
        "createdDate": 1645563976000,
        "modifiedBy": null,
        "modifiedDate": null,
        "client": {
            "clientId": 80,
            "name": "TEC",
            "createdBy": null,
            "createdDate": null,
            "modifiedBy": null,
            "modifiedDate": null,
            "domains": null,
            "groups": null,
            "missions": null
        },
        "missions": null
    }
]